{
  "data": [
    {
      "category": "3.10",
      "date": "2024-09",
      "downloads": 114
    },
    {
      "category": "3.10",
      "date": "2024-10",
      "downloads": 240
    },
    {
      "category": "3.10",
      "date": "2024-11",
      "downloads": 242
    },
    {
      "category": "3.10",
      "date": "2024-12",
      "downloads": 252
    },
    {
      "category": "3.10",
      "date": "2025-01",
      "downloads": 248
    },
    {
      "category": "3.10",
      "date": "2025-02",
      "downloads": 217
    },
    {
      "category": "3.10",
      "date": "2025-03",
      "downloads": 146
    },
    {
      "category": "3.11",
      "date": "2024-09",
      "downloads": 112
    },
    {
      "category": "3.11",
      "date": "2024-10",
      "downloads": 482
    },
    {
      "category": "3.11",
      "date": "2024-11",
      "downloads": 240
    },
    {
      "category": "3.11",
      "date": "2024-12",
      "downloads": 253
    },
    {
      "category": "3.11",
      "date": "2025-01",
      "downloads": 250
    },
    {
      "category": "3.11",
      "date": "2025-02",
      "downloads": 216
    },
    {
      "category": "3.11",
      "date": "2025-03",
      "downloads": 144
    },
    {
      "category": "3.12",
      "date": "2024-09",
      "downloads": 112
    },
    {
      "category": "3.12",
      "date": "2024-10",
      "downloads": 239
    },
    {
      "category": "3.12",
      "date": "2024-11",
      "downloads": 240
    },
    {
      "category": "3.12",
      "date": "2024-12",
      "downloads": 250
    },
    {
      "category": "3.12",
      "date": "2025-01",
      "downloads": 250
    },
    {
      "category": "3.12",
      "date": "2025-02",
      "downloads": 216
    },
    {
      "category": "3.12",
      "date": "2025-03",
      "downloads": 144
    },
    {
      "category": "3.13",
      "date": "2025-01",
      "downloads": 2
    },
    {
      "category": "3.8",
      "date": "2024-09",
      "downloads": 112
    },
    {
      "category": "3.8",
      "date": "2024-10",
      "downloads": 240
    },
    {
      "category": "3.8",
      "date": "2024-11",
      "downloads": 244
    },
    {
      "category": "3.8",
      "date": "2024-12",
      "downloads": 252
    },
    {
      "category": "3.8",
      "date": "2025-01",
      "downloads": 248
    },
    {
      "category": "3.8",
      "date": "2025-02",
      "downloads": 216
    },
    {
      "category": "3.8",
      "date": "2025-03",
      "downloads": 144
    },
    {
      "category": "3.9",
      "date": "2024-10",
      "downloads": 6
    },
    {
      "category": "3.9",
      "date": "2025-03",
      "downloads": 1
    },
    {
      "category": "null",
      "date": "2024-09",
      "downloads": 119
    },
    {
      "category": "null",
      "date": "2024-10",
      "downloads": 839
    },
    {
      "category": "null",
      "date": "2024-11",
      "downloads": 349
    },
    {
      "category": "null",
      "date": "2024-12",
      "downloads": 323
    },
    {
      "category": "null",
      "date": "2025-01",
      "downloads": 362
    },
    {
      "category": "null",
      "date": "2025-02",
      "downloads": 328
    },
    {
      "category": "null",
      "date": "2025-03",
      "downloads": 225
    }
  ],
  "package": "gengive",
  "type": "python_minor_downloads"
}
