{
  "info": {
    "author": "",
    "author_email": "Stefan Hagen <stefan@hagen.link>",
    "bugtrack_url": null,
    "classifiers": [
      "Development Status :: 3 - Alpha",
      "Intended Audience :: Developers",
      "License :: OSI Approved :: MIT License",
      "Programming Language :: Python :: 3.10",
      "Programming Language :: Python :: 3.11",
      "Programming Language :: Python :: 3.12",
      "Programming Language :: Python :: 3.9"
    ],
    "description": "# Gengive\n\nRender text (Danish: gengive tekst).\n\n[License: MIT](https://git.sr.ht/~sthagen/gengive/tree/default/item/LICENSE)\n\nThird party dependencies are documented in the folder [third-party](docs/third-party/README.md).\n\n[![version](https://img.shields.io/pypi/v/gengive.svg?style=flat)](https://pypi.python.org/pypi/gengive/)\n[![downloads](https://pepy.tech/badge/gengive/month)](https://pepy.tech/project/gengive)\n[![wheel](https://img.shields.io/pypi/wheel/gengive.svg?style=flat)](https://pypi.python.org/pypi/gengive/)\n[![supported-versions](https://img.shields.io/pypi/pyversions/gengive.svg?style=flat)](https://pypi.python.org/pypi/gengive/)\n[![supported-implementations](https://img.shields.io/pypi/implementation/gengive.svg?style=flat)](https://pypi.python.org/pypi/gengive/)\n\n## Documentation\n\nUser and developer [documentation of gengive](https://codes.dilettant.life/docs/gengive).\n\n## Bug Tracker\n\nAny feature requests or bug reports shall go to the [todos of gengive](https://todo.sr.ht/~sthagen/gengive).\n\n## Primary Source repository\n\nThe main source of `gengive` is on a mountain in central Switzerland.\nWe use distributed version control (git).\nThere is no central hub.\nEvery clone can become a new source for the benefit of all.\nThe preferred public clones of `gengive` are:\n\n* [on codeberg](https://codeberg.org/sthagen/gengive) - a democratic community-driven, non-profit software development platform operated by Codeberg e.V.\n* [at sourcehut](https://git.sr.ht/~sthagen/gengive) - a collection of tools useful for software development.\n\n## Contributions\n\nPlease do not submit \"pull requests\" (I found no way to disable that \"feature\" on GitHub).\nIf you like to share small changes under the repositories license please kindly do so by sending a patchset.\nYou can either send such a patchset per email using [git send-email](https://git-send-email.io) or \nif you are a sourcehut user by selecting \"Prepare a patchset\" on the summary page of your fork at [sourcehut](https://git.sr.ht/).\n\n## Status\n\nExperimental.\n\n**Note**: The default branch is `default`.\n",
    "description_content_type": "text/markdown",
    "docs_url": null,
    "download_url": "",
    "downloads": {
      "last_day": -1,
      "last_month": -1,
      "last_week": -1
    },
    "dynamic": null,
    "home_page": "",
    "keywords": "developer-tools,markdown,verification",
    "license": "",
    "license_expression": null,
    "license_files": null,
    "maintainer": "",
    "maintainer_email": "Stefan Hagen <stefan@hagen.link>",
    "name": "gengive",
    "package_url": "https://pypi.org/project/gengive/",
    "platform": null,
    "project_url": "https://pypi.org/project/gengive/",
    "project_urls": {
      "Bug-Tracker": "https://todo.sr.ht/~sthagen/gengive",
      "Documentation": "https://codes.dilettant.life/docs/gengive",
      "Homepage": "https://git.sr.ht/~sthagen/gengive",
      "Source-Code": "https://git.sr.ht/~sthagen/gengive",
      "Test-Coverage": "https://codes.dilettant.life/coverage/gengive"
    },
    "provides_extra": null,
    "release_url": "https://pypi.org/project/gengive/2023.6.19/",
    "requires_dist": [
      "markdown (>=3.3.7)",
      "pandoc (>=2.3)",
      "pydantic (>=1.10.9)",
      "typer (>=0.9.0)",
      "black ; extra == 'dev'",
      "coverage ; extra == 'dev'",
      "hypothesis ; extra == 'dev'",
      "mypy ; extra == 'dev'",
      "pytest ; extra == 'dev'",
      "pytest-cov ; extra == 'dev'",
      "pytest-flake8 ; extra == 'dev'",
      "ruff ; extra == 'dev'"
    ],
    "requires_python": ">=3.9",
    "summary": "Render text (Danish: gengive tekst).",
    "version": "2023.6.19",
    "yanked": false,
    "yanked_reason": null
  },
  "last_serial": 18564562,
  "releases": {
    "2022.1.11": [
      {
        "comment_text": "",
        "digests": {
          "blake2b_256": "5d59f3c405e2c138aaf0d9ac7836e6926a608e32a66c0d3c122b87f8fff60389",
          "md5": "d4d32e4210aabd60dad02d2e88e61aaf",
          "sha256": "02343ac634da0c7c716157d39d089c9ae54bd76e7811f6d43e67324ce6ec8076"
        },
        "downloads": -1,
        "filename": "gengive-2022.1.11-py2.py3-none-any.whl",
        "has_sig": false,
        "md5_digest": "d4d32e4210aabd60dad02d2e88e61aaf",
        "packagetype": "bdist_wheel",
        "python_version": "py2.py3",
        "requires_python": ">=3.8",
        "size": 6736,
        "upload_time": "2022-01-11T20:57:40",
        "upload_time_iso_8601": "2022-01-11T20:57:40.355030Z",
        "url": "https://files.pythonhosted.org/packages/5d/59/f3c405e2c138aaf0d9ac7836e6926a608e32a66c0d3c122b87f8fff60389/gengive-2022.1.11-py2.py3-none-any.whl",
        "yanked": false,
        "yanked_reason": null
      },
      {
        "comment_text": "",
        "digests": {
          "blake2b_256": "5b12e046a50ec8966ec7ef956eb9b48d5b26e9c429c7ee9692ff45d3adcda2ab",
          "md5": "b8dc6dd75e3c8adbd7713a104cc89c36",
          "sha256": "746490cbefbeba991235b4e7c3b109790aa10c2135b50dd4d26b9bd7d73aee10"
        },
        "downloads": -1,
        "filename": "gengive-2022.1.11.tar.gz",
        "has_sig": false,
        "md5_digest": "b8dc6dd75e3c8adbd7713a104cc89c36",
        "packagetype": "sdist",
        "python_version": "source",
        "requires_python": ">=3.8",
        "size": 5615,
        "upload_time": "2022-01-11T20:57:42",
        "upload_time_iso_8601": "2022-01-11T20:57:42.416461Z",
        "url": "https://files.pythonhosted.org/packages/5b/12/e046a50ec8966ec7ef956eb9b48d5b26e9c429c7ee9692ff45d3adcda2ab/gengive-2022.1.11.tar.gz",
        "yanked": false,
        "yanked_reason": null
      }
    ],
    "2022.1.30": [
      {
        "comment_text": "",
        "digests": {
          "blake2b_256": "84587ae44dabbaaa90df3e59483fea3ad5d1941841eb61bdd423904d672da815",
          "md5": "3aa24cc50e28b435b2c5975b91e2b9f8",
          "sha256": "863c5b54f5b61c3a9f437b532682dfb159d49034cc3a7b61fe1083d04376eef0"
        },
        "downloads": -1,
        "filename": "gengive-2022.1.30-py2.py3-none-any.whl",
        "has_sig": false,
        "md5_digest": "3aa24cc50e28b435b2c5975b91e2b9f8",
        "packagetype": "bdist_wheel",
        "python_version": "py2.py3",
        "requires_python": ">=3.8",
        "size": 11280,
        "upload_time": "2022-01-30T16:53:15",
        "upload_time_iso_8601": "2022-01-30T16:53:15.635837Z",
        "url": "https://files.pythonhosted.org/packages/84/58/7ae44dabbaaa90df3e59483fea3ad5d1941841eb61bdd423904d672da815/gengive-2022.1.30-py2.py3-none-any.whl",
        "yanked": false,
        "yanked_reason": null
      },
      {
        "comment_text": "",
        "digests": {
          "blake2b_256": "24b1731b74dd7699e2ff09cf582d5c37ad37475cd2d250709ccee16b08f388a7",
          "md5": "569e4c388d9df9cbb0d0094c80ee8798",
          "sha256": "8074282db925232d467505d82c2ed6bb9392d58aa0919148243181e8fdcea920"
        },
        "downloads": -1,
        "filename": "gengive-2022.1.30.tar.gz",
        "has_sig": false,
        "md5_digest": "569e4c388d9df9cbb0d0094c80ee8798",
        "packagetype": "sdist",
        "python_version": "source",
        "requires_python": ">=3.8",
        "size": 10829,
        "upload_time": "2022-01-30T16:53:17",
        "upload_time_iso_8601": "2022-01-30T16:53:17.505526Z",
        "url": "https://files.pythonhosted.org/packages/24/b1/731b74dd7699e2ff09cf582d5c37ad37475cd2d250709ccee16b08f388a7/gengive-2022.1.30.tar.gz",
        "yanked": false,
        "yanked_reason": null
      }
    ],
    "2022.1.31": [
      {
        "comment_text": "",
        "digests": {
          "blake2b_256": "36cd904cc177e6e4dfa74f4f16dc9cfbb681b88c035c63b448a5e2762cd289b3",
          "md5": "a0ce308f708968dde7deaa5b43619ff4",
          "sha256": "3d978a789025f9638161d9f4ac589c4e847cb6e4f48fe30021d76437ebfe4eac"
        },
        "downloads": -1,
        "filename": "gengive-2022.1.31-py2.py3-none-any.whl",
        "has_sig": false,
        "md5_digest": "a0ce308f708968dde7deaa5b43619ff4",
        "packagetype": "bdist_wheel",
        "python_version": "py2.py3",
        "requires_python": ">=3.8",
        "size": 11365,
        "upload_time": "2022-01-31T21:13:38",
        "upload_time_iso_8601": "2022-01-31T21:13:38.142321Z",
        "url": "https://files.pythonhosted.org/packages/36/cd/904cc177e6e4dfa74f4f16dc9cfbb681b88c035c63b448a5e2762cd289b3/gengive-2022.1.31-py2.py3-none-any.whl",
        "yanked": false,
        "yanked_reason": null
      },
      {
        "comment_text": "",
        "digests": {
          "blake2b_256": "ef30d1705c42ca8c72b9953ee84c702afa8fe99de3884145b418e381c8ccf7b5",
          "md5": "23dd71ed9a56b315048081337c70eb00",
          "sha256": "d1a52d720fb157a794ccad016a64dd6e2733066cea5d4580a1d9e1991cb7f747"
        },
        "downloads": -1,
        "filename": "gengive-2022.1.31.tar.gz",
        "has_sig": false,
        "md5_digest": "23dd71ed9a56b315048081337c70eb00",
        "packagetype": "sdist",
        "python_version": "source",
        "requires_python": ">=3.8",
        "size": 10898,
        "upload_time": "2022-01-31T21:13:39",
        "upload_time_iso_8601": "2022-01-31T21:13:39.843842Z",
        "url": "https://files.pythonhosted.org/packages/ef/30/d1705c42ca8c72b9953ee84c702afa8fe99de3884145b418e381c8ccf7b5/gengive-2022.1.31.tar.gz",
        "yanked": false,
        "yanked_reason": null
      }
    ],
    "2022.11.28": [
      {
        "comment_text": "",
        "digests": {
          "blake2b_256": "b44c8ff37a67464e3581db09ca8a6521a78f0fe075ee16d4b7ba5ce824ad6d41",
          "md5": "e6a1a1af95ff2548095792aa7fc50d16",
          "sha256": "162e20110ccc67f6035e31e533bfa3fae07a69effa6bd9eada2083f78bd4fe05"
        },
        "downloads": -1,
        "filename": "gengive-2022.11.28-py2.py3-none-any.whl",
        "has_sig": false,
        "md5_digest": "e6a1a1af95ff2548095792aa7fc50d16",
        "packagetype": "bdist_wheel",
        "python_version": "py2.py3",
        "requires_python": ">=3.9",
        "size": 10833,
        "upload_time": "2022-11-28T23:18:16",
        "upload_time_iso_8601": "2022-11-28T23:18:16.953903Z",
        "url": "https://files.pythonhosted.org/packages/b4/4c/8ff37a67464e3581db09ca8a6521a78f0fe075ee16d4b7ba5ce824ad6d41/gengive-2022.11.28-py2.py3-none-any.whl",
        "yanked": false,
        "yanked_reason": null
      },
      {
        "comment_text": "",
        "digests": {
          "blake2b_256": "13ba14bd73ba7cf78c472c7925d8228a8ebb4115a4d44992b1ac232df51dc454",
          "md5": "d06cac283df91b886ffed2d057e57bb7",
          "sha256": "e244b660dfe6f344ff93454237542ba0d0c65578e57b6c4f8406a1abeb78943c"
        },
        "downloads": -1,
        "filename": "gengive-2022.11.28.tar.gz",
        "has_sig": false,
        "md5_digest": "d06cac283df91b886ffed2d057e57bb7",
        "packagetype": "sdist",
        "python_version": "source",
        "requires_python": ">=3.9",
        "size": 31229,
        "upload_time": "2022-11-28T23:18:19",
        "upload_time_iso_8601": "2022-11-28T23:18:19.221387Z",
        "url": "https://files.pythonhosted.org/packages/13/ba/14bd73ba7cf78c472c7925d8228a8ebb4115a4d44992b1ac232df51dc454/gengive-2022.11.28.tar.gz",
        "yanked": false,
        "yanked_reason": null
      }
    ],
    "2022.2.1": [
      {
        "comment_text": "",
        "digests": {
          "blake2b_256": "4e046185b023a4827ffd07dca899811bb460c5891016fbd5fe23ac63733db9fd",
          "md5": "ce106232e26bf492025845a1ed98bbb2",
          "sha256": "c6227c321d1b4a25317c642f3626e58578bcf6bb6273ce88fb9a8252fb1da4d3"
        },
        "downloads": -1,
        "filename": "gengive-2022.2.1-py2.py3-none-any.whl",
        "has_sig": false,
        "md5_digest": "ce106232e26bf492025845a1ed98bbb2",
        "packagetype": "bdist_wheel",
        "python_version": "py2.py3",
        "requires_python": ">=3.8",
        "size": 12562,
        "upload_time": "2022-02-01T22:10:28",
        "upload_time_iso_8601": "2022-02-01T22:10:28.097534Z",
        "url": "https://files.pythonhosted.org/packages/4e/04/6185b023a4827ffd07dca899811bb460c5891016fbd5fe23ac63733db9fd/gengive-2022.2.1-py2.py3-none-any.whl",
        "yanked": false,
        "yanked_reason": null
      },
      {
        "comment_text": "",
        "digests": {
          "blake2b_256": "31515b832163a62d0d4692f677236faf62a128486e70fcebf4831fe6217fdaf9",
          "md5": "a18904b593c6335d826e9e55fa757f6d",
          "sha256": "23d046d86b80bfb947a967c77d3d3643aee2691d9df2bd31d2af0f46780d1d1f"
        },
        "downloads": -1,
        "filename": "gengive-2022.2.1.tar.gz",
        "has_sig": false,
        "md5_digest": "a18904b593c6335d826e9e55fa757f6d",
        "packagetype": "sdist",
        "python_version": "source",
        "requires_python": ">=3.8",
        "size": 11995,
        "upload_time": "2022-02-01T22:10:29",
        "upload_time_iso_8601": "2022-02-01T22:10:29.732065Z",
        "url": "https://files.pythonhosted.org/packages/31/51/5b832163a62d0d4692f677236faf62a128486e70fcebf4831fe6217fdaf9/gengive-2022.2.1.tar.gz",
        "yanked": false,
        "yanked_reason": null
      }
    ],
    "2022.2.2": [
      {
        "comment_text": "",
        "digests": {
          "blake2b_256": "2bcfd5c38dd59e94e02f1be7d76880ed98c28770dd0da443f269810124b79439",
          "md5": "4fefc20d86466778364cc039796670ce",
          "sha256": "c452405d8dc392f017a9962512c6aae6ad792f069553475de8c7b2696ae15b6d"
        },
        "downloads": -1,
        "filename": "gengive-2022.2.2-py2.py3-none-any.whl",
        "has_sig": false,
        "md5_digest": "4fefc20d86466778364cc039796670ce",
        "packagetype": "bdist_wheel",
        "python_version": "py2.py3",
        "requires_python": ">=3.8",
        "size": 12810,
        "upload_time": "2022-02-02T21:52:43",
        "upload_time_iso_8601": "2022-02-02T21:52:43.508675Z",
        "url": "https://files.pythonhosted.org/packages/2b/cf/d5c38dd59e94e02f1be7d76880ed98c28770dd0da443f269810124b79439/gengive-2022.2.2-py2.py3-none-any.whl",
        "yanked": false,
        "yanked_reason": null
      },
      {
        "comment_text": "",
        "digests": {
          "blake2b_256": "b96e5204e0fb3b4d720eb98a204f98f8f52428527dd55c5ea839cceedb9a7cc4",
          "md5": "7a0b0c548b0db5a6f581a3fb8aeedc7a",
          "sha256": "65786a4aee6271a998775204b3ef03e96c8d554bbf57f7bc763db32dc3c23bcc"
        },
        "downloads": -1,
        "filename": "gengive-2022.2.2.tar.gz",
        "has_sig": false,
        "md5_digest": "7a0b0c548b0db5a6f581a3fb8aeedc7a",
        "packagetype": "sdist",
        "python_version": "source",
        "requires_python": ">=3.8",
        "size": 12201,
        "upload_time": "2022-02-02T21:52:45",
        "upload_time_iso_8601": "2022-02-02T21:52:45.461230Z",
        "url": "https://files.pythonhosted.org/packages/b9/6e/5204e0fb3b4d720eb98a204f98f8f52428527dd55c5ea839cceedb9a7cc4/gengive-2022.2.2.tar.gz",
        "yanked": false,
        "yanked_reason": null
      }
    ],
    "2022.2.3": [
      {
        "comment_text": "",
        "digests": {
          "blake2b_256": "0e1b2f63eb09141a990d40954027b5186c17552c0ad3806032a5f4a23479dd11",
          "md5": "cc2111dabe9d069861130afdc3764bfe",
          "sha256": "2d02d360fb919ccaac42731efbf74ae0091d8daf6131e52797503ca78202a264"
        },
        "downloads": -1,
        "filename": "gengive-2022.2.3-py2.py3-none-any.whl",
        "has_sig": false,
        "md5_digest": "cc2111dabe9d069861130afdc3764bfe",
        "packagetype": "bdist_wheel",
        "python_version": "py2.py3",
        "requires_python": ">=3.8",
        "size": 13251,
        "upload_time": "2022-02-03T22:17:37",
        "upload_time_iso_8601": "2022-02-03T22:17:37.888583Z",
        "url": "https://files.pythonhosted.org/packages/0e/1b/2f63eb09141a990d40954027b5186c17552c0ad3806032a5f4a23479dd11/gengive-2022.2.3-py2.py3-none-any.whl",
        "yanked": false,
        "yanked_reason": null
      },
      {
        "comment_text": "",
        "digests": {
          "blake2b_256": "4ffc8b288c420c2cd33cb37d32028f9273dbe8655306fdd0a85cd01ff634233d",
          "md5": "3316ae590b5d955e41bcd704bd42c1b0",
          "sha256": "501140f090a60438651c06e2fac1e7140607da03a34b4e523b3a253adc7b8eb2"
        },
        "downloads": -1,
        "filename": "gengive-2022.2.3.tar.gz",
        "has_sig": false,
        "md5_digest": "3316ae590b5d955e41bcd704bd42c1b0",
        "packagetype": "sdist",
        "python_version": "source",
        "requires_python": ">=3.8",
        "size": 12678,
        "upload_time": "2022-02-03T22:17:39",
        "upload_time_iso_8601": "2022-02-03T22:17:39.704752Z",
        "url": "https://files.pythonhosted.org/packages/4f/fc/8b288c420c2cd33cb37d32028f9273dbe8655306fdd0a85cd01ff634233d/gengive-2022.2.3.tar.gz",
        "yanked": false,
        "yanked_reason": null
      }
    ],
    "2022.8.2": [
      {
        "comment_text": "",
        "digests": {
          "blake2b_256": "f65a0c45318ddc7180d2a2d8c378ab95f5ccdfe58f6d30dcece261cd57f2d602",
          "md5": "d655b4177dd8a23abfa5608b985544e4",
          "sha256": "217eae224b656b9e97947bdc559c2f8db01d12d35ce36f6d39f4b7bf6ac78b42"
        },
        "downloads": -1,
        "filename": "gengive-2022.8.2-py2.py3-none-any.whl",
        "has_sig": false,
        "md5_digest": "d655b4177dd8a23abfa5608b985544e4",
        "packagetype": "bdist_wheel",
        "python_version": "py2.py3",
        "requires_python": ">=3.8",
        "size": 13733,
        "upload_time": "2022-08-02T04:24:32",
        "upload_time_iso_8601": "2022-08-02T04:24:32.620801Z",
        "url": "https://files.pythonhosted.org/packages/f6/5a/0c45318ddc7180d2a2d8c378ab95f5ccdfe58f6d30dcece261cd57f2d602/gengive-2022.8.2-py2.py3-none-any.whl",
        "yanked": false,
        "yanked_reason": null
      },
      {
        "comment_text": "",
        "digests": {
          "blake2b_256": "e415a8ae5c2a95a272ada333833944def67a72f3099efa140735ae6003700845",
          "md5": "e2d1bd459791f511dea57b1733307148",
          "sha256": "8b3c0f7b14675013b439f77c9d97443d2c13f7b160ce6da9e1fe501ba8ad7791"
        },
        "downloads": -1,
        "filename": "gengive-2022.8.2.tar.gz",
        "has_sig": false,
        "md5_digest": "e2d1bd459791f511dea57b1733307148",
        "packagetype": "sdist",
        "python_version": "source",
        "requires_python": ">=3.8",
        "size": 30444,
        "upload_time": "2022-08-02T04:24:34",
        "upload_time_iso_8601": "2022-08-02T04:24:34.183195Z",
        "url": "https://files.pythonhosted.org/packages/e4/15/a8ae5c2a95a272ada333833944def67a72f3099efa140735ae6003700845/gengive-2022.8.2.tar.gz",
        "yanked": false,
        "yanked_reason": null
      }
    ],
    "2023.6.19": [
      {
        "comment_text": "",
        "digests": {
          "blake2b_256": "61019844ac0fad86924107b487bacac305a77bce3401dd01fa6cd1477716df86",
          "md5": "ee77e60441a3c71cd3438efd14416975",
          "sha256": "bd2ed7c5252031e895c5bc1055b592f39feeddf02bf5c1201ee0c2f0cb0c95ea"
        },
        "downloads": -1,
        "filename": "gengive-2023.6.19-py3-none-any.whl",
        "has_sig": false,
        "md5_digest": "ee77e60441a3c71cd3438efd14416975",
        "packagetype": "bdist_wheel",
        "python_version": "py3",
        "requires_python": ">=3.9",
        "size": 11076,
        "upload_time": "2023-06-19T20:47:02",
        "upload_time_iso_8601": "2023-06-19T20:47:02.902889Z",
        "url": "https://files.pythonhosted.org/packages/61/01/9844ac0fad86924107b487bacac305a77bce3401dd01fa6cd1477716df86/gengive-2023.6.19-py3-none-any.whl",
        "yanked": false,
        "yanked_reason": null
      },
      {
        "comment_text": "",
        "digests": {
          "blake2b_256": "4f0304e65362431d99c0f8029cf7580e5aeeb2601b59f79f51dccb58eff46fb2",
          "md5": "1820a3e0c9dfe065f15332c127a5d847",
          "sha256": "54500644bd849cd288f92678c5e315f924aa4ad71d5144881447955babb37674"
        },
        "downloads": -1,
        "filename": "gengive-2023.6.19.tar.gz",
        "has_sig": false,
        "md5_digest": "1820a3e0c9dfe065f15332c127a5d847",
        "packagetype": "sdist",
        "python_version": "source",
        "requires_python": ">=3.9",
        "size": 14086,
        "upload_time": "2023-06-19T20:47:04",
        "upload_time_iso_8601": "2023-06-19T20:47:04.312734Z",
        "url": "https://files.pythonhosted.org/packages/4f/03/04e65362431d99c0f8029cf7580e5aeeb2601b59f79f51dccb58eff46fb2/gengive-2023.6.19.tar.gz",
        "yanked": false,
        "yanked_reason": null
      }
    ]
  },
  "urls": [
    {
      "comment_text": "",
      "digests": {
        "blake2b_256": "61019844ac0fad86924107b487bacac305a77bce3401dd01fa6cd1477716df86",
        "md5": "ee77e60441a3c71cd3438efd14416975",
        "sha256": "bd2ed7c5252031e895c5bc1055b592f39feeddf02bf5c1201ee0c2f0cb0c95ea"
      },
      "downloads": -1,
      "filename": "gengive-2023.6.19-py3-none-any.whl",
      "has_sig": false,
      "md5_digest": "ee77e60441a3c71cd3438efd14416975",
      "packagetype": "bdist_wheel",
      "python_version": "py3",
      "requires_python": ">=3.9",
      "size": 11076,
      "upload_time": "2023-06-19T20:47:02",
      "upload_time_iso_8601": "2023-06-19T20:47:02.902889Z",
      "url": "https://files.pythonhosted.org/packages/61/01/9844ac0fad86924107b487bacac305a77bce3401dd01fa6cd1477716df86/gengive-2023.6.19-py3-none-any.whl",
      "yanked": false,
      "yanked_reason": null
    },
    {
      "comment_text": "",
      "digests": {
        "blake2b_256": "4f0304e65362431d99c0f8029cf7580e5aeeb2601b59f79f51dccb58eff46fb2",
        "md5": "1820a3e0c9dfe065f15332c127a5d847",
        "sha256": "54500644bd849cd288f92678c5e315f924aa4ad71d5144881447955babb37674"
      },
      "downloads": -1,
      "filename": "gengive-2023.6.19.tar.gz",
      "has_sig": false,
      "md5_digest": "1820a3e0c9dfe065f15332c127a5d847",
      "packagetype": "sdist",
      "python_version": "source",
      "requires_python": ">=3.9",
      "size": 14086,
      "upload_time": "2023-06-19T20:47:04",
      "upload_time_iso_8601": "2023-06-19T20:47:04.312734Z",
      "url": "https://files.pythonhosted.org/packages/4f/03/04e65362431d99c0f8029cf7580e5aeeb2601b59f79f51dccb58eff46fb2/gengive-2023.6.19.tar.gz",
      "yanked": false,
      "yanked_reason": null
    }
  ],
  "vulnerabilities": []
}